vcd/fifo.vcd
$version Generated by VerilatedVcd $end
$timescale 1ps $end

 $scope module TOP $end
  $var wire  1 - clk $end
  $var wire  1 3 empty $end
  $var wire  1 2 full $end
  $var wire 32 1 i_data [31:0] $end
  $var wire 32 4 o_data [31:0] $end
  $var wire  1 0 pop $end
  $var wire  1 / push $end
  $var wire  1 . rst_n $end
  $scope module fifo $end
   $var wire 32 6 DATA_WIDTH [31:0] $end
   $var wire 32 5 FIFO_DEPTH [31:0] $end
   $var wire  1 - clk $end
   $var wire  1 3 empty $end
   $var wire 32 # fifo_data[0] [31:0] $end
   $var wire 32 $ fifo_data[1] [31:0] $end
   $var wire 32 % fifo_data[2] [31:0] $end
   $var wire 32 & fifo_data[3] [31:0] $end
   $var wire 32 ' fifo_data[4] [31:0] $end
   $var wire 32 ( fifo_data[5] [31:0] $end
   $var wire 32 ) fifo_data[6] [31:0] $end
   $var wire 32 * fifo_data[7] [31:0] $end
   $var wire  1 2 full $end
   $var wire  4 , head [3:0] $end
   $var wire 32 1 i_data [31:0] $end
   $var wire 32 4 o_data [31:0] $end
   $var wire  1 0 pop $end
   $var wire  1 / push $end
   $var wire  1 . rst_n $end
   $var wire  4 + tail [3:0] $end
  $upscope $end
 $upscope $end
$enddefinitions $end


#0
b00000000000000000000000000000000 #
b00000000000000000000000000000000 $
b00000000000000000000000000000000 %
b00000000000000000000000000000000 &
b00000000000000000000000000000000 '
b00000000000000000000000000000000 (
b00000000000000000000000000000000 )
b00000000000000000000000000000000 *
b0000 +
b0000 ,
0-
0.
0/
00
b00000000000000000000000000000000 1
02
13
b00000000000000000000000000000000 4
b00000000000000000000000000001000 5
b00000000000000000000000000100000 6
#1
1.
#2
1-
#3
0-
0.
#4
1-
#5
0-
1/
b00000000000000000000001000010111 1
#6
b00000000000000000000001000010111 #
b0001 ,
1-
03
b00000000000000000000001000010111 4
#7
0-
b00000000000000000000001011011110 1
#8
b00000000000000000000001011011110 $
b0010 ,
1-
#9
0-
b00000000000000000000000111110001 1
#10
b00000000000000000000000111110001 %
b0011 ,
1-
#11
0-
b00000000000000000000000111111111 1
#12
b00000000000000000000000111111111 &
b0100 ,
1-
#13
0-
b00000000000000000000000110010010 1
#14
b00000000000000000000000110010010 '
b0101 ,
1-
#15
0-
b00000000000000000000000111010000 1
#16
b00000000000000000000000111010000 (
b0110 ,
1-
#17
0-
b00000000000000000000001001010000 1
#18
b00000000000000000000001001010000 )
b0111 ,
1-
#19
0-
b00000000000000000000000011000000 1
#20
b00000000000000000000000011000000 *
b1000 ,
1-
12
#21
0-
b00000000000000000000000100000010 1
#22
1-
#23
0-
0/
10
#24
b0001 +
1-
02
b00000000000000000000001011011110 4
#25
0-
#26
b0010 +
1-
b00000000000000000000000111110001 4
#27
0-
#28
b0011 +
1-
b00000000000000000000000111111111 4
#29
0-
#30
b0100 +
1-
b00000000000000000000000110010010 4
#31
0-
#32
b0101 +
1-
b00000000000000000000000111010000 4
#33
0-
#34
b0110 +
1-
b00000000000000000000001001010000 4
#35
0-
#36
b0111 +
1-
b00000000000000000000000011000000 4
#37
0-
#38
b1000 +
1-
13
b00000000000000000000001000010111 4
